{
  "page": 1,
  "total_results": 3804,
  "total_pages": 191,
  "results": [
    {
      "popularity": 33.587,
      "vote_count": 9325,
      "video": false,
      "poster_path": "/uLOmOF5IzWoyrgIF5MfUnh5pa1X.jpg",
      "id": 607,
      "adult": false,
      "backdrop_path": null,
      "original_language": "en",
      "original_title": "Men in Black",
      "genre_ids": [28, 12, 35, 878],
      "title": "Men in Black",
      "vote_average": 7.1,
      "overview": "After a police chase with an otherworldly being, a New York City cop is recruited as an agent in a top-secret organization established to monitor and police alien activity on Earth: the Men in Black. Agent Kay and new recruit Agent Jay find themselves in the middle of a deadly plot by an intergalactic terrorist who has arrived on Earth to assassinate two ambassadors from opposing galaxies.",
      "release_date": "1997-07-02"
    },
    {
      "popularity": 34.875,
      "vote_count": 9356,
      "video": false,
      "poster_path": "/qttNmCib9gHhR5q0QoZ3FgmGom9.jpg",
      "id": 246655,
      "adult": false,
      "backdrop_path": "/2ex2beZ4ssMeOduLD0ILzXKCiep.jpg",
      "original_language": "en",
      "original_title": "X-Men: Apocalypse",
      "genre_ids": [28, 12, 14, 878],
      "title": "X-Men: Apocalypse",
      "vote_average": 6.5,
      "overview": "After the re-emergence of the world's first mutant, world-destroyer Apocalypse, the X-Men must unite to defeat his extinction level plan.",
      "release_date": "2016-05-18"
    },
    {
      "popularity": 25.261,
      "vote_count": 4596,
      "video": false,
      "poster_path": "/7sf9CgJz30aXDvrg7DYYUQ2U91T.jpg",
      "id": 389,
      "adult": false,
      "backdrop_path": "/6396QiokQBiTgPgB16nUWxYdM7N.jpg",
      "original_language": "en",
      "original_title": "12 Angry Men",
      "genre_ids": [18],
      "title": "12 Angry Men",
      "vote_average": 8.4,
      "overview": "The defense and the prosecution have rested and the jury is filing into the jury room to decide if a young Spanish-American is guilty or innocent of murdering his father. What begins as an open and shut case soon becomes a mini-drama of each of the jurors' prejudices and preconceptions about the trial, the accused, and each other.",
      "release_date": "1957-04-10"
    },
    {
      "popularity": 28.285,
      "vote_count": 6748,
      "video": false,
      "poster_path": "/enA22EPyzc2WQ1VVyY7zxresQQr.jpg",
      "id": 608,
      "adult": false,
      "backdrop_path": "/k22mrpAzZNRR5ktD5Wb7rMlxemS.jpg",
      "original_language": "en",
      "original_title": "Men in Black II",
      "genre_ids": [28, 12, 35, 878],
      "title": "Men in Black II",
      "vote_average": 6.3,
      "overview": "Kay and Jay reunite to provide our best, last and only line of defense against a sinister seductress who levels the toughest challenge yet to the MIB's untarnished mission statement – protecting Earth from the scum of the universe. It's been four years since the alien-seeking agents averted an intergalactic disaster of epic proportions. Now it's a race against the clock as Jay must convince Kay – who not only has absolutely no memory of his time spent with the MIB, but is also the only living person left with the expertise to save the galaxy – to reunite with the MIB before the earth submits to ultimate destruction.",
      "release_date": "2002-07-03"
    }
  ]
}
