{
  "page": 1,
  "total_results": 3807,
  "total_pages": 191,
  "results": [
    {
      "popularity": 32.857,
      "vote_count": 9337,
      "video": false,
      "poster_path": "/uLOmOF5IzWoyrgIF5MfUnh5pa1X.jpg",
      "id": 607,
      "adult": false,
      "backdrop_path": "/kaPTm06WnoqaHOgGbQaRCrupaKo.jpg",
      "original_language": "en",
      "original_title": "Men in Black",
      "genre_ids": [28, 12, 35, 878],
      "title": "Men in Black",
      "vote_average": 7.1,
      "overview": "After a police chase with an otherworldly being, a New York City cop is recruited as an agent in a top-secret organization established to monitor and police alien activity on Earth: the Men in Black. Agent Kay and new recruit Agent Jay find themselves in the middle of a deadly plot by an intergalactic terrorist who has arrived on Earth to assassinate two ambassadors from opposing galaxies.",
      "release_date": "1997-07-02"
    },
    {
      "popularity": 29.232,
      "vote_count": 9372,
      "video": false,
      "poster_path": "/qttNmCib9gHhR5q0QoZ3FgmGom9.jpg",
      "id": 246655,
      "adult": false,
      "backdrop_path": "/2ex2beZ4ssMeOduLD0ILzXKCiep.jpg",
      "original_language": "en",
      "original_title": "X-Men: Apocalypse",
      "genre_ids": [28, 12, 14, 878],
      "title": "X-Men: Apocalypse",
      "vote_average": 6.5,
      "overview": "After the re-emergence of the world's first mutant, world-destroyer Apocalypse, the X-Men must unite to defeat his extinction level plan.",
      "release_date": "2016-05-18"
    },
    {
      "popularity": 29.232,
      "vote_count": 9372,
      "video": false,
      "poster_path": "/qttNmCib9gHhR5q0QoZ3FgmGom9.jpg",
      "id": 246658,
      "adult": false,
      "backdrop_path": null,
      "original_language": "en",
      "original_title": "X-Men: Apocalypse",
      "genre_ids": [28, 12, 14, 878],
      "title": "X-Men: Apocalypse",
      "vote_average": 6.5,
      "overview": "After the re-emergence of the world's first mutant, world-destroyer Apocalypse, the X-Men must unite to defeat his extinction level plan.",
      "release_date": "2016-05-18"
    }
  ]
}
